digraph Tree {
node [shape=box, style="rounded", color="black", fontname=helvetica] ;
edge [fontname=helvetica] ;
0 [label="x3 <= 4.1\ngini = 0.1\nsamples = 1478\nvalue = [2183, 163]"] ;
1 [label="x1 <= 1.5\ngini = 0.0\nsamples = 599\nvalue = [946, 22]"] ;
0 -> 1 [labeldistance=2.5, labelangle=45, headlabel="True"] ;
2 [label="x53 <= -4.5\ngini = 0.3\nsamples = 11\nvalue = [12, 3]"] ;
1 -> 2 ;
3 [label="x55 <= 19.5\ngini = 0.1\nsamples = 10\nvalue = [12, 1]"] ;
2 -> 3 ;
4 [label="gini = 0.0\nsamples = 8\nvalue = [10, 0]"] ;
3 -> 4 ;
5 [label="x54 <= 15.0\ngini = 0.4\nsamples = 2\nvalue = [2, 1]"] ;
3 -> 5 ;
6 [label="gini = 0.0\nsamples = 1\nvalue = [2, 0]"] ;
5 -> 6 ;
7 [label="gini = 0.0\nsamples = 1\nvalue = [0, 1]"] ;
5 -> 7 ;
8 [label="gini = 0.0\nsamples = 1\nvalue = [0, 2]"] ;
2 -> 8 ;
9 [label="x53 <= -4.8\ngini = 0.0\nsamples = 588\nvalue = [934, 19]"] ;
1 -> 9 ;
10 [label="x2 <= 4.6\ngini = 0.1\nsamples = 313\nvalue = [490, 17]"] ;
9 -> 10 ;
11 [label="x54 <= 15.5\ngini = 0.0\nsamples = 286\nvalue = [454, 10]"] ;
10 -> 11 ;
12 [label="gini = 0.0\nsamples = 247\nvalue = [408, 0]"] ;
11 -> 12 ;
13 [label="x55 <= 15.5\ngini = 0.3\nsamples = 39\nvalue = [46, 10]"] ;
11 -> 13 ;
14 [label="gini = 0.0\nsamples = 7\nvalue = [10, 0]"] ;
13 -> 14 ;
15 [label="x3 <= 3.5\ngini = 0.3\nsamples = 32\nvalue = [36, 10]"] ;
13 -> 15 ;
16 [label="x52 <= 76.5\ngini = 0.1\nsamples = 14\nvalue = [18, 1]"] ;
15 -> 16 ;
17 [label="gini = 0.0\nsamples = 11\nvalue = [16, 0]"] ;
16 -> 17 ;
18 [label="x3 <= 2.5\ngini = 0.4\nsamples = 3\nvalue = [2, 1]"] ;
16 -> 18 ;
19 [label="gini = 0.0\nsamples = 1\nvalue = [0, 1]"] ;
18 -> 19 ;
20 [label="gini = 0.0\nsamples = 2\nvalue = [2, 0]"] ;
18 -> 20 ;
21 [label="x53 <= -5.5\ngini = 0.4\nsamples = 18\nvalue = [18, 9]"] ;
15 -> 21 ;
22 [label="gini = 0.0\nsamples = 1\nvalue = [2, 0]"] ;
21 -> 22 ;
23 [label="x1 <= 4.5\ngini = 0.5\nsamples = 17\nvalue = [16, 9]"] ;
21 -> 23 ;
24 [label="x55 <= 17.5\ngini = 0.5\nsamples = 13\nvalue = [11, 8]"] ;
23 -> 24 ;
25 [label="x1 <= 3.5\ngini = 0.5\nsamples = 6\nvalue = [4, 5]"] ;
24 -> 25 ;
26 [label="gini = 0.0\nsamples = 1\nvalue = [1, 0]"] ;
25 -> 26 ;
27 [label="x52 <= 37.5\ngini = 0.5\nsamples = 5\nvalue = [3, 5]"] ;
25 -> 27 ;
28 [label="gini = 0.0\nsamples = 1\nvalue = [1, 0]"] ;
27 -> 28 ;
29 [label="x2 <= 3.5\ngini = 0.4\nsamples = 4\nvalue = [2, 5]"] ;
27 -> 29 ;
30 [label="gini = 0.0\nsamples = 1\nvalue = [2, 0]"] ;
29 -> 30 ;
31 [label="gini = 0.0\nsamples = 3\nvalue = [0, 5]"] ;
29 -> 31 ;
32 [label="x2 <= 3.0\ngini = 0.4\nsamples = 7\nvalue = [7, 3]"] ;
24 -> 32 ;
33 [label="x52 <= 62.5\ngini = 0.5\nsamples = 2\nvalue = [1, 1]"] ;
32 -> 33 ;
34 [label="gini = 0.0\nsamples = 1\nvalue = [0, 1]"] ;
33 -> 34 ;
35 [label="gini = 0.0\nsamples = 1\nvalue = [1, 0]"] ;
33 -> 35 ;
36 [label="x52 <= 63.0\ngini = 0.4\nsamples = 5\nvalue = [6, 2]"] ;
32 -> 36 ;
37 [label="x52 <= 55.5\ngini = 0.5\nsamples = 2\nvalue = [2, 2]"] ;
36 -> 37 ;
38 [label="gini = 0.0\nsamples = 1\nvalue = [2, 0]"] ;
37 -> 38 ;
39 [label="gini = 0.0\nsamples = 1\nvalue = [0, 2]"] ;
37 -> 39 ;
40 [label="gini = 0.0\nsamples = 3\nvalue = [4, 0]"] ;
36 -> 40 ;
41 [label="x55 <= 17.5\ngini = 0.3\nsamples = 4\nvalue = [5, 1]"] ;
23 -> 41 ;
42 [label="gini = 0.0\nsamples = 1\nvalue = [3, 0]"] ;
41 -> 42 ;
43 [label="x52 <= 56.5\ngini = 0.4\nsamples = 3\nvalue = [2, 1]"] ;
41 -> 43 ;
44 [label="gini = 0.0\nsamples = 1\nvalue = [1, 0]"] ;
43 -> 44 ;
45 [label="x52 <= 57.5\ngini = 0.5\nsamples = 2\nvalue = [1, 1]"] ;
43 -> 45 ;
46 [label="gini = 0.0\nsamples = 1\nvalue = [0, 1]"] ;
45 -> 46 ;
47 [label="gini = 0.0\nsamples = 1\nvalue = [1, 0]"] ;
45 -> 47 ;
48 [label="x1 <= 3.5\ngini = 0.3\nsamples = 27\nvalue = [36, 7]"] ;
10 -> 48 ;
49 [label="gini = 0.0\nsamples = 1\nvalue = [0, 2]"] ;
48 -> 49 ;
50 [label="x3 <= 3.5\ngini = 0.2\nsamples = 26\nvalue = [36, 5]"] ;
48 -> 50 ;
51 [label="x55 <= 19.5\ngini = 0.4\nsamples = 6\nvalue = [6, 3]"] ;
50 -> 51 ;
52 [label="x3 <= 2.5\ngini = 0.5\nsamples = 2\nvalue = [1, 1]"] ;
51 -> 52 ;
53 [label="gini = 0.0\nsamples = 1\nvalue = [1, 0]"] ;
52 -> 53 ;
54 [label="gini = 0.0\nsamples = 1\nvalue = [0, 1]"] ;
52 -> 54 ;
55 [label="x54 <= 15.5\ngini = 0.4\nsamples = 4\nvalue = [5, 2]"] ;
51 -> 55 ;
56 [label="gini = 0.0\nsamples = 2\nvalue = [2, 0]"] ;
55 -> 56 ;
57 [label="x52 <= 57.5\ngini = 0.5\nsamples = 2\nvalue = [3, 2]"] ;
55 -> 57 ;
58 [label="gini = 0.0\nsamples = 1\nvalue = [0, 2]"] ;
57 -> 58 ;
59 [label="gini = 0.0\nsamples = 1\nvalue = [3, 0]"] ;
57 -> 59 ;
60 [label="x55 <= 17.5\ngini = 0.1\nsamples = 20\nvalue = [30, 2]"] ;
50 -> 60 ;
61 [label="x54 <= 15.5\ngini = 0.2\nsamples = 11\nvalue = [16, 2]"] ;
60 -> 61 ;
62 [label="gini = 0.0\nsamples = 8\nvalue = [13, 0]"] ;
61 -> 62 ;
63 [label="x55 <= 15.5\ngini = 0.5\nsamples = 3\nvalue = [3, 2]"] ;
61 -> 63 ;
64 [label="gini = 0.0\nsamples = 1\nvalue = [2, 0]"] ;
63 -> 64 ;
65 [label="x52 <= 69.5\ngini = 0.4\nsamples = 2\nvalue = [1, 2]"] ;
63 -> 65 ;
66 [label="gini = 0.0\nsamples = 1\nvalue = [0, 2]"] ;
65 -> 66 ;
67 [label="gini = 0.0\nsamples = 1\nvalue = [1, 0]"] ;
65 -> 67 ;
68 [label="gini = 0.0\nsamples = 9\nvalue = [14, 0]"] ;
60 -> 68 ;
69 [label="x54 <= 15.5\ngini = 0.0\nsamples = 275\nvalue = [444, 2]"] ;
9 -> 69 ;
70 [label="gini = 0.0\nsamples = 238\nvalue = [391, 0]"] ;
69 -> 70 ;
71 [label="x1 <= 2.5\ngini = 0.1\nsamples = 37\nvalue = [53, 2]"] ;
69 -> 71 ;
72 [label="gini = 0.0\nsamples = 1\nvalue = [0, 1]"] ;
71 -> 72 ;
73 [label="x3 <= 3.5\ngini = 0.0\nsamples = 36\nvalue = [53, 1]"] ;
71 -> 73 ;
74 [label="x53 <= -3.5\ngini = 0.2\nsamples = 7\nvalue = [9, 1]"] ;
73 -> 74 ;
75 [label="x52 <= 55.0\ngini = 0.2\nsamples = 6\nvalue = [8, 1]"] ;
74 -> 75 ;
76 [label="x55 <= 13.5\ngini = 0.5\nsamples = 2\nvalue = [1, 1]"] ;
75 -> 76 ;
77 [label="gini = 0.0\nsamples = 1\nvalue = [0, 1]"] ;
76 -> 77 ;
78 [label="gini = 0.0\nsamples = 1\nvalue = [1, 0]"] ;
76 -> 78 ;
79 [label="gini = 0.0\nsamples = 4\nvalue = [7, 0]"] ;
75 -> 79 ;
80 [label="gini = 0.0\nsamples = 1\nvalue = [1, 0]"] ;
74 -> 80 ;
81 [label="gini = 0.0\nsamples = 29\nvalue = [44, 0]"] ;
73 -> 81 ;
82 [label="x54 <= 15.5\ngini = 0.2\nsamples = 879\nvalue = [1237, 141]"] ;
0 -> 82 [labeldistance=2.5, labelangle=-45, headlabel="False"] ;
83 [label="x54 <= 14.5\ngini = 0.0\nsamples = 696\nvalue = [1073, 4]"] ;
82 -> 83 ;
84 [label="x55 <= 14.5\ngini = 0.0\nsamples = 332\nvalue = [507, 4]"] ;
83 -> 84 ;
85 [label="gini = 0.0\nsamples = 174\nvalue = [275, 0]"] ;
84 -> 85 ;
86 [label="x53 <= -5.5\ngini = 0.0\nsamples = 158\nvalue = [232, 4]"] ;
84 -> 86 ;
87 [label="x52 <= 57.5\ngini = 0.0\nsamples = 85\nvalue = [129, 1]"] ;
86 -> 87 ;
88 [label="x1 <= 2.5\ngini = 0.1\nsamples = 17\nvalue = [20, 1]"] ;
87 -> 88 ;
89 [label="x54 <= 13.0\ngini = 0.4\nsamples = 3\nvalue = [3, 1]"] ;
88 -> 89 ;
90 [label="gini = 0.0\nsamples = 1\nvalue = [0, 1]"] ;
89 -> 90 ;
91 [label="gini = 0.0\nsamples = 2\nvalue = [3, 0]"] ;
89 -> 91 ;
92 [label="gini = 0.0\nsamples = 14\nvalue = [17, 0]"] ;
88 -> 92 ;
93 [label="gini = 0.0\nsamples = 68\nvalue = [109, 0]"] ;
87 -> 93 ;
94 [label="x54 <= 13.5\ngini = 0.1\nsamples = 73\nvalue = [103, 3]"] ;
86 -> 94 ;
95 [label="gini = 0.0\nsamples = 25\nvalue = [36, 0]"] ;
94 -> 95 ;
96 [label="x53 <= -4.8\ngini = 0.1\nsamples = 48\nvalue = [67, 3]"] ;
94 -> 96 ;
97 [label="x1 <= 4.5\ngini = 0.1\nsamples = 36\nvalue = [49, 3]"] ;
96 -> 97 ;
98 [label="x2 <= 4.6\ngini = 0.5\nsamples = 2\nvalue = [2, 2]"] ;
97 -> 98 ;
99 [label="gini = 0.0\nsamples = 1\nvalue = [2, 0]"] ;
98 -> 99 ;
100 [label="gini = 0.0\nsamples = 1\nvalue = [0, 2]"] ;
98 -> 100 ;
101 [label="x55 <= 17.5\ngini = 0.0\nsamples = 34\nvalue = [47, 1]"] ;
97 -> 101 ;
102 [label="gini = 0.0\nsamples = 24\nvalue = [35, 0]"] ;
101 -> 102 ;
103 [label="x2 <= 4.6\ngini = 0.1\nsamples = 10\nvalue = [12, 1]"] ;
101 -> 103 ;
104 [label="gini = 0.0\nsamples = 1\nvalue = [0, 1]"] ;
103 -> 104 ;
105 [label="gini = 0.0\nsamples = 9\nvalue = [12, 0]"] ;
103 -> 105 ;
106 [label="gini = 0.0\nsamples = 12\nvalue = [18, 0]"] ;
96 -> 106 ;
107 [label="gini = 0.0\nsamples = 364\nvalue = [566, 0]"] ;
83 -> 107 ;
108 [label="x55 <= 15.5\ngini = 0.5\nsamples = 183\nvalue = [164, 137]"] ;
82 -> 108 ;
109 [label="x2 <= 4.6\ngini = 0.2\nsamples = 49\nvalue = [78, 9]"] ;
108 -> 109 ;
110 [label="x53 <= -4.5\ngini = 0.4\nsamples = 3\nvalue = [8, 3]"] ;
109 -> 110 ;
111 [label="gini = 0.0\nsamples = 1\nvalue = [0, 3]"] ;
110 -> 111 ;
112 [label="gini = 0.0\nsamples = 2\nvalue = [8, 0]"] ;
110 -> 112 ;
113 [label="x53 <= -4.5\ngini = 0.1\nsamples = 46\nvalue = [70, 6]"] ;
109 -> 113 ;
114 [label="x52 <= 81.5\ngini = 0.4\nsamples = 11\nvalue = [17, 5]"] ;
113 -> 114 ;
115 [label="x52 <= 59.5\ngini = 0.4\nsamples = 8\nvalue = [11, 5]"] ;
114 -> 115 ;
116 [label="x52 <= 50.0\ngini = 0.3\nsamples = 6\nvalue = [11, 2]"] ;
115 -> 116 ;
117 [label="gini = 0.0\nsamples = 2\nvalue = [4, 0]"] ;
116 -> 117 ;
118 [label="x52 <= 57.5\ngini = 0.3\nsamples = 4\nvalue = [7, 2]"] ;
116 -> 118 ;
119 [label="gini = 0.4\nsamples = 2\nvalue = [4, 2]"] ;
118 -> 119 ;
120 [label="gini = 0.0\nsamples = 2\nvalue = [3, 0]"] ;
118 -> 120 ;
121 [label="gini = 0.0\nsamples = 2\nvalue = [0, 3]"] ;
115 -> 121 ;
122 [label="gini = 0.0\nsamples = 3\nvalue = [6, 0]"] ;
114 -> 122 ;
123 [label="x52 <= 56.5\ngini = 0.0\nsamples = 35\nvalue = [53, 1]"] ;
113 -> 123 ;
124 [label="x55 <= 13.0\ngini = 0.1\nsamples = 15\nvalue = [22, 1]"] ;
123 -> 124 ;
125 [label="gini = 0.0\nsamples = 12\nvalue = [18, 0]"] ;
124 -> 125 ;
126 [label="x52 <= 54.5\ngini = 0.3\nsamples = 3\nvalue = [4, 1]"] ;
124 -> 126 ;
127 [label="gini = 0.0\nsamples = 2\nvalue = [4, 0]"] ;
126 -> 127 ;
128 [label="gini = 0.0\nsamples = 1\nvalue = [0, 1]"] ;
126 -> 128 ;
129 [label="gini = 0.0\nsamples = 20\nvalue = [31, 0]"] ;
123 -> 129 ;
130 [label="x52 <= 56.5\ngini = 0.5\nsamples = 134\nvalue = [86, 128]"] ;
108 -> 130 ;
131 [label="x52 <= 50.0\ngini = 0.3\nsamples = 29\nvalue = [31, 8]"] ;
130 -> 131 ;
132 [label="x55 <= 17.5\ngini = 0.4\nsamples = 17\nvalue = [15, 7]"] ;
131 -> 132 ;
133 [label="x53 <= -3.5\ngini = 0.3\nsamples = 4\nvalue = [1, 4]"] ;
132 -> 133 ;
134 [label="gini = 0.0\nsamples = 3\nvalue = [0, 4]"] ;
133 -> 134 ;
135 [label="gini = 0.0\nsamples = 1\nvalue = [1, 0]"] ;
133 -> 135 ;
136 [label="x55 <= 19.5\ngini = 0.3\nsamples = 13\nvalue = [14, 3]"] ;
132 -> 136 ;
137 [label="gini = 0.0\nsamples = 4\nvalue = [4, 0]"] ;
136 -> 137 ;
138 [label="x52 <= 32.5\ngini = 0.4\nsamples = 9\nvalue = [10, 3]"] ;
136 -> 138 ;
139 [label="gini = 0.0\nsamples = 7\nvalue = [10, 0]"] ;
138 -> 139 ;
140 [label="gini = 0.0\nsamples = 2\nvalue = [0, 3]"] ;
138 -> 140 ;
141 [label="x2 <= 4.6\ngini = 0.1\nsamples = 12\nvalue = [16, 1]"] ;
131 -> 141 ;
142 [label="gini = 0.0\nsamples = 3\nvalue = [4, 0]"] ;
141 -> 142 ;
143 [label="x55 <= 19.0\ngini = 0.1\nsamples = 9\nvalue = [12, 1]"] ;
141 -> 143 ;
144 [label="gini = 0.0\nsamples = 7\nvalue = [11, 0]"] ;
143 -> 144 ;
145 [label="x52 <= 54.5\ngini = 0.5\nsamples = 2\nvalue = [1, 1]"] ;
143 -> 145 ;
146 [label="gini = 0.0\nsamples = 1\nvalue = [0, 1]"] ;
145 -> 146 ;
147 [label="gini = 0.0\nsamples = 1\nvalue = [1, 0]"] ;
145 -> 147 ;
148 [label="x55 <= 16.5\ngini = 0.4\nsamples = 105\nvalue = [55, 120]"] ;
130 -> 148 ;
149 [label="x1 <= 2.5\ngini = 0.5\nsamples = 15\nvalue = [12, 10]"] ;
148 -> 149 ;
150 [label="gini = 0.0\nsamples = 1\nvalue = [0, 2]"] ;
149 -> 150 ;
151 [label="x1 <= 4.5\ngini = 0.5\nsamples = 14\nvalue = [12, 8]"] ;
149 -> 151 ;
152 [label="gini = 0.0\nsamples = 1\nvalue = [1, 0]"] ;
151 -> 152 ;
153 [label="x52 <= 74.5\ngini = 0.5\nsamples = 13\nvalue = [11, 8]"] ;
151 -> 153 ;
154 [label="x52 <= 57.5\ngini = 0.4\nsamples = 11\nvalue = [11, 5]"] ;
153 -> 154 ;
155 [label="x2 <= 4.6\ngini = 0.5\nsamples = 5\nvalue = [3, 4]"] ;
154 -> 155 ;
156 [label="gini = 0.0\nsamples = 2\nvalue = [0, 2]"] ;
155 -> 156 ;
157 [label="gini = 0.5\nsamples = 3\nvalue = [3, 2]"] ;
155 -> 157 ;
158 [label="x3 <= 4.6\ngini = 0.2\nsamples = 6\nvalue = [8, 1]"] ;
154 -> 158 ;
159 [label="gini = 0.0\nsamples = 1\nvalue = [0, 1]"] ;
158 -> 159 ;
160 [label="gini = 0.0\nsamples = 5\nvalue = [8, 0]"] ;
158 -> 160 ;
161 [label="gini = 0.0\nsamples = 2\nvalue = [0, 3]"] ;
153 -> 161 ;
162 [label="x52 <= 86.5\ngini = 0.4\nsamples = 90\nvalue = [43, 110]"] ;
148 -> 162 ;
163 [label="x1 <= 2.5\ngini = 0.3\nsamples = 82\nvalue = [30, 108]"] ;
162 -> 163 ;
164 [label="x52 <= 66.0\ngini = 0.4\nsamples = 16\nvalue = [8, 19]"] ;
163 -> 164 ;
165 [label="x55 <= 19.5\ngini = 0.2\nsamples = 11\nvalue = [2, 18]"] ;
164 -> 165 ;
166 [label="x53 <= -4.5\ngini = 0.4\nsamples = 2\nvalue = [2, 1]"] ;
165 -> 166 ;
167 [label="gini = 0.0\nsamples = 1\nvalue = [2, 0]"] ;
166 -> 167 ;
168 [label="gini = 0.0\nsamples = 1\nvalue = [0, 1]"] ;
166 -> 168 ;
169 [label="gini = 0.0\nsamples = 9\nvalue = [0, 17]"] ;
165 -> 169 ;
170 [label="x52 <= 75.5\ngini = 0.2\nsamples = 5\nvalue = [6, 1]"] ;
164 -> 170 ;
171 [label="gini = 0.0\nsamples = 3\nvalue = [3, 0]"] ;
170 -> 171 ;
172 [label="x52 <= 77.5\ngini = 0.4\nsamples = 2\nvalue = [3, 1]"] ;
170 -> 172 ;
173 [label="gini = 0.0\nsamples = 1\nvalue = [0, 1]"] ;
172 -> 173 ;
174 [label="gini = 0.0\nsamples = 1\nvalue = [3, 0]"] ;
172 -> 174 ;
175 [label="x52 <= 57.5\ngini = 0.3\nsamples = 66\nvalue = [22, 89]"] ;
163 -> 175 ;
176 [label="x2 <= 4.6\ngini = 0.1\nsamples = 23\nvalue = [2, 41]"] ;
175 -> 176 ;
177 [label="gini = 0.0\nsamples = 17\nvalue = [0, 31]"] ;
176 -> 177 ;
178 [label="x53 <= -4.5\ngini = 0.3\nsamples = 6\nvalue = [2, 10]"] ;
176 -> 178 ;
179 [label="gini = 0.0\nsamples = 3\nvalue = [0, 7]"] ;
178 -> 179 ;
180 [label="x55 <= 17.5\ngini = 0.5\nsamples = 3\nvalue = [2, 3]"] ;
178 -> 180 ;
181 [label="gini = 0.0\nsamples = 2\nvalue = [0, 3]"] ;
180 -> 181 ;
182 [label="gini = 0.0\nsamples = 1\nvalue = [2, 0]"] ;
180 -> 182 ;
183 [label="x52 <= 67.5\ngini = 0.4\nsamples = 43\nvalue = [20, 48]"] ;
175 -> 183 ;
184 [label="x53 <= -4.3\ngini = 0.5\nsamples = 19\nvalue = [17, 10]"] ;
183 -> 184 ;
185 [label="x52 <= 62.0\ngini = 0.4\nsamples = 16\nvalue = [16, 6]"] ;
184 -> 185 ;
186 [label="x53 <= -5.5\ngini = 0.5\nsamples = 6\nvalue = [3, 5]"] ;
185 -> 186 ;
187 [label="x52 <= 59.0\ngini = 0.3\nsamples = 4\nvalue = [1, 5]"] ;
186 -> 187 ;
188 [label="x2 <= 4.6\ngini = 0.4\nsamples = 3\nvalue = [1, 3]"] ;
187 -> 188 ;
189 [label="gini = 0.0\nsamples = 1\nvalue = [0, 1]"] ;
188 -> 189 ;
190 [label="gini = 0.4\nsamples = 2\nvalue = [1, 2]"] ;
188 -> 190 ;
191 [label="gini = 0.0\nsamples = 1\nvalue = [0, 2]"] ;
187 -> 191 ;
192 [label="gini = 0.0\nsamples = 2\nvalue = [2, 0]"] ;
186 -> 192 ;
193 [label="x2 <= 4.6\ngini = 0.1\nsamples = 10\nvalue = [13, 1]"] ;
185 -> 193 ;
194 [label="gini = 0.0\nsamples = 5\nvalue = [9, 0]"] ;
193 -> 194 ;
195 [label="x53 <= -5.5\ngini = 0.3\nsamples = 5\nvalue = [4, 1]"] ;
193 -> 195 ;
196 [label="x3 <= 4.6\ngini = 0.5\nsamples = 2\nvalue = [1, 1]"] ;
195 -> 196 ;
197 [label="gini = 0.0\nsamples = 1\nvalue = [1, 0]"] ;
196 -> 197 ;
198 [label="gini = 0.0\nsamples = 1\nvalue = [0, 1]"] ;
196 -> 198 ;
199 [label="gini = 0.0\nsamples = 3\nvalue = [3, 0]"] ;
195 -> 199 ;
200 [label="x53 <= -3.5\ngini = 0.3\nsamples = 3\nvalue = [1, 4]"] ;
184 -> 200 ;
201 [label="gini = 0.0\nsamples = 2\nvalue = [0, 4]"] ;
200 -> 201 ;
202 [label="gini = 0.0\nsamples = 1\nvalue = [1, 0]"] ;
200 -> 202 ;
203 [label="x53 <= -3.5\ngini = 0.1\nsamples = 24\nvalue = [3, 38]"] ;
183 -> 203 ;
204 [label="x1 <= 4.5\ngini = 0.1\nsamples = 23\nvalue = [2, 38]"] ;
203 -> 204 ;
205 [label="x1 <= 3.5\ngini = 0.3\nsamples = 8\nvalue = [2, 11]"] ;
204 -> 205 ;
206 [label="gini = 0.0\nsamples = 4\nvalue = [0, 8]"] ;
205 -> 206 ;
207 [label="x52 <= 72.0\ngini = 0.5\nsamples = 4\nvalue = [2, 3]"] ;
205 -> 207 ;
208 [label="gini = 0.0\nsamples = 2\nvalue = [0, 3]"] ;
207 -> 208 ;
209 [label="gini = 0.0\nsamples = 2\nvalue = [2, 0]"] ;
207 -> 209 ;
210 [label="gini = 0.0\nsamples = 15\nvalue = [0, 27]"] ;
204 -> 210 ;
211 [label="gini = 0.0\nsamples = 1\nvalue = [1, 0]"] ;
203 -> 211 ;
212 [label="x53 <= -4.3\ngini = 0.2\nsamples = 8\nvalue = [13, 2]"] ;
162 -> 212 ;
213 [label="x55 <= 19.5\ngini = 0.3\nsamples = 6\nvalue = [8, 2]"] ;
212 -> 213 ;
214 [label="gini = 0.0\nsamples = 1\nvalue = [0, 1]"] ;
213 -> 214 ;
215 [label="x55 <= 20.5\ngini = 0.2\nsamples = 5\nvalue = [8, 1]"] ;
213 -> 215 ;
216 [label="gini = 0.0\nsamples = 3\nvalue = [7, 0]"] ;
215 -> 216 ;
217 [label="x53 <= -5.8\ngini = 0.5\nsamples = 2\nvalue = [1, 1]"] ;
215 -> 217 ;
218 [label="gini = 0.0\nsamples = 1\nvalue = [0, 1]"] ;
217 -> 218 ;
219 [label="gini = 0.0\nsamples = 1\nvalue = [1, 0]"] ;
217 -> 219 ;
220 [label="gini = 0.0\nsamples = 2\nvalue = [5, 0]"] ;
212 -> 220 ;
}